<svg width="24" height="24" viewBox="0 0 24 24" fill="none" xmlns="http://www.w3.org/2000/svg">
<path fill-rule="evenodd" clip-rule="evenodd" d="M22.526 0H1.47404C0.660401 0 0 0.661386 0 1.47401V22.526C0 23.3386 0.660401 24 1.47404 24H22.526C23.3386 24 24 23.3386 24 22.526V1.47401C24 0.661386 23.3386 0 22.526 0ZM21.9974 22.0012H1.99805V9.68827H21.9974V22.0012ZM21.9974 7.6895H1.99805V1.99834H21.9974V7.6895ZM17.9018 5.84282H18.4657C19.0188 5.84282 19.4646 5.3975 19.4646 4.84439C19.4646 4.29029 19.0188 3.84497 18.4657 3.84497H17.9018C17.3487 3.84497 16.9028 4.29029 16.9028 4.84439C16.9028 5.3975 17.3536 5.84282 17.9018 5.84282ZM13.2924 5.84282H13.8563C14.4094 5.84282 14.8552 5.3975 14.8552 4.84439C14.8552 4.29029 14.4094 3.84497 13.8563 3.84497H13.2924C12.7393 3.84497 12.2935 4.29029 12.2935 4.84439C12.2935 5.3975 12.7393 5.84282 13.2924 5.84282ZM9.87927 20.336C10.5251 20.6257 11.0401 20.2189 11.2119 19.8609L14.596 12.6801C14.8311 12.1807 14.6155 11.5836 14.116 11.3486C13.6165 11.1135 13.0185 11.3242 12.7834 11.8286L9.40417 19.0034C9.16423 19.5039 9.375 20.1106 9.87927 20.336ZM15.2234 19.0971C15.7034 19.5136 16.3247 19.2834 16.5404 19.0971L19.6611 16.4135C20.023 16.0993 20.023 15.5902 19.6611 15.277L16.5404 12.5924C16.1784 12.2787 15.5853 12.2787 15.2234 12.5924C14.8604 12.9056 14.8604 13.4157 15.2234 13.7289L17.6817 15.8448L15.2234 17.9606C14.8604 18.2747 14.8604 18.7839 15.2234 19.0971ZM7.45903 19.0922C7.82195 19.4054 8.41502 19.4054 8.77694 19.0922C9.13985 18.779 9.13985 18.2699 8.77694 17.9557L6.31864 15.8447L8.77694 13.7288C9.13985 13.4156 9.13985 12.9055 8.77694 12.5923C8.29695 12.1763 7.6746 12.406 7.45903 12.5923L4.33933 15.2769C3.97152 15.5901 3.97152 16.0944 4.33933 16.4085L7.45903 19.0922Z" fill="#EC2227"/>
</svg>
